[gd_resource type="Resource" script_class="InventoryItem" load_steps=3 format=3 uid="uid://dquge5affj3eg"]

[ext_resource type="Script" path="res://inventory/inventoryItem.gd" id="1_mekvg"]
[ext_resource type="Texture2D" uid="uid://dqkkbpibv3yjy" path="res://assets/collectables/LifePot.png" id="2_3nlig"]

[resource]
script = ExtResource("1_mekvg")
name = "lifepot"
texture = ExtResource("2_3nlig")
maxAmountPerStack = 10
