[gd_resource type="Resource" script_class="InventoryItem" load_steps=3 format=3 uid="uid://veedjm1dftnj"]

[ext_resource type="Script" path="res://inventory/inventoryItem.gd" id="1_77ryb"]
[ext_resource type="Texture2D" uid="uid://du51hqkcw7ekw" path="res://assets/collectables/Sword.png" id="2_t7g1k"]

[resource]
script = ExtResource("1_77ryb")
name = "sword"
texture = ExtResource("2_t7g1k")
maxAmountPerStack = 1
