[gd_scene load_steps=3 format=3 uid="uid://bvlt5jwixwjup"]

[ext_resource type="Script" path="res://collectables/collectable.gd" id="1_j7wbu"]

[sub_resource type="RectangleShape2D" id="RectangleShape2D_dqg03"]
resource_local_to_scene = true
size = Vector2(8, 10)

[node name="Collectable" type="Area2D" groups=["collectables"]]
script = ExtResource("1_j7wbu")

[node name="CollisionShape2D" type="CollisionShape2D" parent="."]
shape = SubResource("RectangleShape2D_dqg03")

[node name="Sprite2D" type="Sprite2D" parent="."]
