[gd_scene load_steps=5 format=3 uid="uid://bvvl011sj3kgp"]

[ext_resource type="PackedScene" uid="uid://bvlt5jwixwjup" path="res://collectables/collectable.tscn" id="1_63468"]
[ext_resource type="Texture2D" uid="uid://dqkkbpibv3yjy" path="res://assets/collectables/LifePot.png" id="2_rq3wu"]
[ext_resource type="Resource" uid="uid://dquge5affj3eg" path="res://inventory/items/lifepot.tres" id="2_xfwkh"]

[sub_resource type="RectangleShape2D" id="RectangleShape2D_kil7a"]
resource_local_to_scene = true
size = Vector2(8, 10)

[node name="Lifepot" instance=ExtResource("1_63468")]
itemRes = ExtResource("2_xfwkh")

[node name="CollisionShape2D" parent="." index="0"]
shape = SubResource("RectangleShape2D_kil7a")

[node name="Sprite2D" parent="." index="1"]
texture = ExtResource("2_rq3wu")
