[gd_scene load_steps=9 format=3 uid="uid://d00y3g0wir5av"]

[ext_resource type="PackedScene" uid="uid://bvlt5jwixwjup" path="res://collectables/collectable.tscn" id="1_xhqbf"]
[ext_resource type="Script" path="res://collectables/sword.gd" id="2_c17f2"]
[ext_resource type="Texture2D" uid="uid://du51hqkcw7ekw" path="res://assets/collectables/Sword.png" id="2_cd47s"]
[ext_resource type="Resource" uid="uid://veedjm1dftnj" path="res://inventory/items/sword.tres" id="3_cga7y"]

[sub_resource type="RectangleShape2D" id="RectangleShape2D_n1vxq"]
resource_local_to_scene = true
size = Vector2(5, 16)

[sub_resource type="Animation" id="Animation_om6l4"]
length = 0.8
step = 0.4

[sub_resource type="Animation" id="Animation_1i2aa"]
resource_name = "spin"
length = 0.8
step = 0.4
tracks/0/type = "value"
tracks/0/imported = false
tracks/0/enabled = true
tracks/0/path = NodePath("Sprite2D:rotation")
tracks/0/interp = 1
tracks/0/loop_wrap = true
tracks/0/keys = {
"times": PackedFloat32Array(0, 0.4),
"transitions": PackedFloat32Array(1, 1),
"update": 0,
"values": [0.0, 6.28319]
}

[sub_resource type="AnimationLibrary" id="AnimationLibrary_iast2"]
_data = {
"RESET": SubResource("Animation_om6l4"),
"spin": SubResource("Animation_1i2aa")
}

[node name="Sword" instance=ExtResource("1_xhqbf")]
script = ExtResource("2_c17f2")
itemRes = ExtResource("3_cga7y")

[node name="CollisionShape2D" parent="." index="0"]
position = Vector2(0.5, 0)
shape = SubResource("RectangleShape2D_n1vxq")

[node name="Sprite2D" parent="." index="1"]
rotation = 6.28319
texture = ExtResource("2_cd47s")

[node name="AnimationPlayer" type="AnimationPlayer" parent="." index="2"]
libraries = {
"": SubResource("AnimationLibrary_iast2")
}
